id;name;lk
1;"Agropecuario";
2;"Alimentos";
3;"Asegurador";
4;"Bebidas y Tabaco";
5;"Comercio al por menor – retail";
6;"Construcción";
7;"Consultorías / Asesoría";
8;"Consumo masivo";
9;"Cuero y calzado";
10;"Editorial e impresión";
11;"Educativo";
12;"Energético";
13;"Entretenimiento";
14;"Estatal y relacionados";
15;"Financiero";
16;"Manufactura";
17;"Medios";
18;"Minería, hierro, acero y otros material";
19;"Naval";
20;"Organizaciones No Gubernamentales";
21;"Plástico y caucho";
22;"Productos de vidrio";
23;"Publicidad y mercadeo";
24;"Pulpa, papel y cartón";
25;"Químicos";
26;"Salud";
27;"Servicios";
28;"Tecnología";
29;"Telecomunicaciones";
30;"Textiles, prendas de vestir y calzado";
31;"Transporte";
32;"Vehículos y partes";
