id|name|body|subject
1|"recover_pass"|email.ftl|Restablecer Contraseña
2|"ps-state-active"|002-client-ps-state-active.ftl|Proceso de Selección activo
4|"st-cv-validation-end"|003-client-st-cv-validation-end.ftl|Etapa de Validación de Hoja de Vida finalizada
5|"st-exploratory-interview-check"|004-postulant-st-exploratory-interview-check.ftl|Te invitamos a participar en una Entrevista Exploratoria como siguiente etapa del proceso!
6|"st-exploratory-interview-interview"|004-postulant-st-exploratory-interview-interview.ftl|Estás un paso más cerca de tu Entrevista Exploratoria!
7|"ps-create-manager"|001-client-ps-create-manager.ftl|Ha sido asignado como Gestor a un proceso de selección
8|"ps-state-configuration"|002-client-ps-state-configuration.ftl|Proceso de Selección en Configuración
9|"ps-state-recruitment-end"|003-admin-ps-state-recruitment-end.ftl|Proceso de Selección - Reclutamiento finalizado
10|"ps-state-selection"|003-client-ps-state-selection.ftl|Proceso de Selección en selección
11|"st-interview-done"|00-postulant-st-interview-done.ftl|Has finalizado tu Entrevista Exploratoria!
15|"st-depth-interview-check"|008-postulant-st-depth-interview-check.ftl|Te invitamos a participar en una Entrevista a Profundidad como siguiente etapa del proceso!
16|"st-depth-interview-interview"|008-postulant-st-depth-interview-interview.ftl|Estás un paso más cerca de tu Entrevista a Profundidad!
17|"st-sorry"|00-postulant-st-sorry.ftl|Lo sentimos!
18|"st-cv-validation-approved"|003-postulant-st-cv-validation-approved.ftl|Gracias por tu postulación!
19|"st-cv-validation-rejected"|003-postulant-st-cv-validation-rejected.ftl|Gracias por tu postulación!
20|"st-interview-invitation-reject"|00-postulant-st-interview-invitation-reject.ftl|Gracias por tu postulación!
21|"st-interview-init"|00-client-st-interview-init.ftl|Ha iniciado la Etapa de Entrevista Exploratoria para un proceso de selección
22|"st-interview-end"|00-client-st-interview-end.ftl|Ha finalizado la Etapa de Entrevista Exploratoria para un proceso de selección
23|"st-interview-congratulations"|00-postulant-st-interview-congratulations.ftl|Gracias por llevar a cabo tu Entrevista Exploratoria!
24|"st-test-check"|006-postulant-st-test-check.ftl|Te invitamos a participar en una etapa de Pruebas como siguiente etapa del proceso!
25|"st-test-interview"|006-postulant-st-test-interview.ftl|Sigue estas instrucciones para presentar tus Pruebas!
26|"st-interview-init"|00-client-st-interview-init.ftl|Ha iniciado la Etapa de Pruebas para un proceso de selección
27|"st-interview-done"|00-postulant-st-interview-done.ftl|Has finalizado tus Pruebas!
28|"st-interview-congratulations"|00-postulant-st-interview-congratulations.ftl|Gracias por llevar a cabo tus Pruebas!
29|"st-interview-sorry"|00-postulant-st-interview-sorry.ftl|Gracias por llevar a cabo tu Entrevista Exploratoria!
30|"st-interview-sorry"|00-postulant-st-interview-sorry.ftl|Gracias por llevar a cabo tus Pruebas!
31|"st-interview-init"|00-client-st-interview-init.ftl|Ha iniciado la Etapa de Entrevista a Profunidad para un proceso de selección
32|"st-interview-done"|00-postulant-st-interview-done.ftl|Has finalizado tu Entrevista a Profundidad!
33|"st-interview-congratulations"|00-postulant-st-interview-congratulations.ftl|Gracias por llevar a cabo tu Entrevista a Profundidad!
34|"st-interview-sorry"|00-postulant-st-interview-sorry.ftl|Gracias por llevar a cabo tu Entrevista a Profundidad!
35|"st-consolidated-result-generated"|010-client-st-consolidated-result-generated.ftl|Se han definido los postulantes preseleccionados para un proceso de selección
36|"st-consolidated-result-accepted"|010-postulant-st-consolidated-result-accepted.ftl|Te encuentras dentro de los candidatos con mayor nivel de compatibilidad con el cargo!
37|"st-consolidated-result-rejected"|010-postulant-st-consolidated-result-rejected.ftl|Gracias por tu participación!
38|"st-final-selected-user-do-interview"|011-client-st-final-selected-user-do-interview.ftl|¿Desea llevar a cabo entrevistas finales?
