id;name;lk
1;"Incompleto";"process_selection_state.incomplete"
2;"Terminado";"process_selection_state.finished"
3;"Configurando";"process_selection_state.configuration"
4;"Confirmado";"process_selection_state.confirmed"
5;"Reclutamiento";"process_selection_state.recruitment"
6;"Evaluando Hojas de vida";"process_selection_state.cv-assesmen"
7;"Etapa Entrevista Exploratoria";"process_selection_state.st-exploratory-interview"
8;"Evaluar Entrevista Exploratoria";"process_selection_state.st-exploratory-interview-asses"
9;"Evaluando Entrevista Exploratoria";"process_selection_state.st-exploratory-interview-assesmen"
10;"Etapa Pruebas";"process_selection_state.st-test"
11;"Evaluar Etapa Pruebas";"process_selection_state.st-test-asses"
12;"Evaluando Etapa Pruebas";"process_selection_state.st-test-assesmen"
13;"Etapa Entrevista a Profundidad";"process_selection_state.st-depth-interview"
14;"Evaluar Entrevista a Profundidad";"process_selection_state.st-depth-interview-asses"
15;"Evaluando Entrevista a Profundidad";"process_selection_state.st-depth-interview-assesmen"
16;"Resultados consolidados";"process_selection_state.st-consolidated-result"
17;"Resultados consolidados - Generando";"process_selection_state.st-consolidated-result-generating"
18;"Resultados consolidados - Generados";"process_selection_state.st-consolidated-result-generated"