id;name
1;"Abas Erp"
2;"Acuamatica Cloud Erp"
3;"Adobe Acrobat Professional"
4;"Alegra"
5;"Allprowebtools"
6;"Alvendi"
7;"Anfix"
8;"Aquilon Erp"
9;"Automation Studio"
10;"Base"
11;"Bitrix24"
12;"Bizagi"
13;"Bizautomation"
14;"Cegit"
15;"Centralibos"
16;"Clauserp"
17;"Concar"
18;"Contalux"
19;"Contamoney"
20;"Contasimple"
21;"Contasol"
22;"Cronos"
23;"Data"
24;"Deacom"
25;"Delsol"
26;"Deltek"
27;"Deskera"
28;"Dolibarr Erp"
29;"Dropbox"
30;"Eci-M1"
31;"Ecount Erp"
32;"Epicor"
33;"Erpag"
34;"Erpnext"
35;"Evernote"
36;"E-Views"
37;"Factool"
38;"Factura Directa"
39;"Factusol"
40;"Financialforce Accounting"
41;"Forecast Pro Unlimited"
42;"Gespymes"
43;"Global Shop Solutions"
44;"Googledrive"
45;"Hightail"
46;"Hp Openview"
47;"Hubspot "
48;"Idempiere"
49;"Infor Erp"
50;"Insightly"
51;"Iso 14001"
52;"Iso 18001"
53;"Iso 9001"
54;"Loggro"
55;"Logical Concept"
56;"Lotus Notes"
57;"Lotus Smart Suite"
58;"Macola"
59;"Made2Manage"
60;"Megainventory"
61;"Metlab"
62;"Microsoft Access"
63;"Microsoft Dynamics"
64;"Microsoft Excel"
65;"Microsoft Exchange"
66;"Microsoft Onedrive"
67;"Microsoft Onenote"
68;"Microsoft Powerpoint"
69;"Microsoft Project"
70;"Microsoft Visio"
71;"Microsoft Word"
72;"Microsoft Outlook"
73;"Mie Trak Pro"
74;"Mixerp"
75;"Moyex"
76;"Munis"
77;"Netsuite"
78;"Nomimasol"
79;"Odoo"
80;"Officebooks"
81;"Openbravo"
82;"Openpro Erp"
83;"Opmanager"
84;"Oracle Crm"
85;"Oracle E-Business Suite"
86;"Oracle Jd Edwards"
87;"Oracle Netsuite"
88;"Orcad"
89;"Pdf-Xchange Viewer"
90;"Peoplesoft"
91;"Pipedrive"
92;"Polygon Software"
93;"Prestacob"
94;"Process Simulator"
95;"Prophet21"
96;"Prosperworks"
97;"Sage Erp"
98;"Sage Intaact"
99;"Sage One"
100;"Sait Básico"
101;"Salesforce "
102;"Salesnet"
103;"Sap"
104;"Sap Business One"
105;"Secomat"
106;"Secop"
107;"Sellsy"
108;"Siesa Erp"
109;"Siigo"
110;"Sispag"
111;"Skubana"
112;"Skype"
113;"Spss"
114;"Sugar"
115;"Syspro"
116;"Tca"
117;"Versaccounts"
118;"Vienna Advantage"
119;"Winfds"
120;"Winweb"
121;"Xtuple"
122;"Zendesk"
123;"Zoho Crm"
