id;name;education_type_id
1;"Bachiller";1
2;"Administración Bancaria";2
3;"Administración De Hostelería";2
4;"Administración De Hoteles Y Restaurantes";2
5;"Administración De Negocios Agropecuarios";2
6;"Administración De Negocios Bancarios Y Financieros";2
7;"Administración De Negocios Internacionales";2
8;"Administración De Operaciones Bancarias Y Financieras";2
9;"Administración De Operaciones Turísticas";2
10;"Administración De Plataformas Y Servicios Web";2
11;"Administración Y Gestión Empresarial";2
12;"Asesoramiento Operativo Y Comercial De Productos Bancarios Y Financieros";2
13;"Gestión Comercial";2
14;"Gestión Comercial De Productos Y Servicios Bancarios Y Financieros";2
15;"Gestión De Logística";2
16;"Gestión Y Administración De Negocios";2
17;"Marketing";2
18;"Marketing Empresarial";2
19;"Marketing Y Ventas";2
20;"Operaciones Bancarias Y Financieras";2
21;"Operaciones De Almacenamiento";2
22;"Profesional Técnico En Administración Bancaria Y Financiera";2
23;"Profesional Técnico En Administración De Banca Y Finanzas";2
24;"Profesional Técnico En Administración De Empresas";2
25;"Profesional Técnico En Administración De Empresas Turísticas";2
26;"Profesional Técnico En Administración De Empresas Turísticas Y Hoteleras";2
27;"Profesional Técnico En Administración De Negocios";2
28;"Profesional Técnico En Administración Hotelera";2
29;"Profesional Técnico En Administración Turística";2
30;"Profesional Técnico En Administración Y Sistemas";2
31;"Profesional Técnico En Contabilidad";2
32;"Profesional Técnico En Gestión De Recursos Humanos";2
33;"Secretariado Ejecutivo";2
34;"Técnica En Contabilidad Sistematizada";2
35;"Técnica Profesional Administrativa";2
36;"Técnica Profesional Contable";2
37;"Técnica Profesional De Procesos Administrativos";2
38;"Técnica Profesional En Administración Bancaria Y Financiera";2
39;"Técnica Profesional En Administración Comercial";2
40;"Técnica Profesional En Administración De Costos Y Auditoria";2
41;"Técnica Profesional En Administración De Empresas";2
42;"Técnica Profesional En Administración De La Construcción";2
43;"Técnica Profesional En Administración De Procesos Municipales";2
44;"Técnica Profesional En Administración Hotelera";2
45;"Técnica Profesional En Administración Hotelera Y Turística";2
46;"Técnica Profesional En Administración Turística Y Hotelera";2
47;"Técnica Profesional En Administración Y Producción Agroindustrial";2
48;"Técnica Profesional En Agroturismo";2
49;"Técnica Profesional En Atención Al Cliente";2
50;"Técnica Profesional En Comercialización De Artesanías";2
51;"Técnica Profesional En Comercialización De Café";2
52;"Técnica Profesional En Comercio Exterior";2
53;"Técnica Profesional En Comercio Exterior Y Logística";2
54;"Técnica Profesional En Comercio Internacional";2
55;"Técnica Profesional En Comercio Internacional Y Legislación Aduanera";2
56;"Técnica Profesional En Construcción";2
57;"Técnica Profesional En Construcción Y Administración De Obras Civiles";2
58;"Técnica Profesional En Contabilidad";2
59;"Técnica Profesional En Contabilidad Comercial";2
60;"Técnica Profesional En Contabilidad Costos Y Auditoria";2
61;"Técnica Profesional En Contabilidad Financiera";2
62;"Técnica Profesional En Contabilidad Sistematizada";2
63;"Técnica Profesional En Contabilidad Y Costos";2
64;"Técnica Profesional En Contabilidad Y Finanzas";2
65;"Técnica Profesional En Contaduría";2
66;"Técnica Profesional En Contaduría Sistematizada";2
67;"Técnica Profesional En Costos Y Contabilidad";2
68;"Técnica Profesional En Desarrollo Empresarial";2
69;"Técnica Profesional En Distribución Logística Y Comercial";2
70;"Técnica Profesional En Documentación De La Calidad";2
71;"Técnica Profesional En Emprendimiento Y Desarrollo Empresarial";2
72;"Técnica Profesional En Facturación Y Cartera De Servicios De Salud";2
73;"Técnica Profesional En Formación Judicial Y Criminalística";2
74;"Técnica Profesional En Formulación Y Gestión De Proyectos";2
75;"Técnica Profesional En Gestión Aduanera Y Zonas Francas";2
76;"Técnica Profesional En Gestión Agropecuaria";2
77;"Técnica Profesional En Gestión Ambiental";2
78;"Técnica Profesional En Gestión Comercial Y Financiera";2
79;"Técnica Profesional En Gestión Comercial Y Logística";2
80;"Técnica Profesional En Gestión Contable";2
81;"Técnica Profesional En Gestión De Aduanas Y Comercio Exterior";2
82;"Técnica Profesional En Gestión De Bares Y Restaurantes";2
83;"Técnica Profesional En Gestión De Mercadeo";2
84;"Técnica Profesional En Gestión Financiera";2
85;"Técnica Profesional En Gestión Hotelera";2
86;"Técnica Profesional En Gestión Hotelera Y De Servicios";2
87;"Técnica Profesional En Gestión Logística Del Transporte";2
88;"Técnica Profesional En Gestión Secretarial Ejecutiva Bilingüe";2
89;"Técnica Profesional En Hotelería";2
90;"Técnica Profesional En Hotelería Y Turismo";2
91;"Técnica Profesional En Impuestos Y Aduanas";2
92;"Técnica Profesional En Logística De Comercio Exterior";2
93;"Técnica Profesional En Logística De Eventos";2
94;"Técnica Profesional En Logística Internacional De Comercio";2
95;"Técnica Profesional En Logística Y Merchandising De Alimentos";2
96;"Técnica Profesional En Manejo De Microcréditos";2
97;"Técnica Profesional En Manejo De Vehículos De Carga Pesada";2
98;"Técnica Profesional En Mercadeo";2
99;"Técnica Profesional En Mercadeo Y Estrategias Comerciales";2
100;"Técnica Profesional En Mercadeo Y Publicidad";2
101;"Técnica Profesional En Mercadeo Y Ventas";2
102;"Técnica Profesional En Mercadotecnia";2
103;"Técnica Profesional En Nómina Y Prestaciones Sociales";2
104;"Técnica Profesional En Operación De Almacenes Y Bodegas";2
105;"Técnica Profesional En Operación De Almacenes Y Transporte";2
106;"Técnica Profesional En Operación De Comercio Electrónico";2
107;"Técnica Profesional En Operación De Mercadeo Y Ventas";2
108;"Técnica Profesional En Operación De Procesos Administrativos De Empresas Rurales";2
109;"Técnica Profesional En Operación De Procesos Aduaneros";2
110;"Técnica Profesional En Operación De Procesos Gastronómicos";2
111;"Técnica Profesional En Operación De Procesos Industriales";2
112;"Técnica Profesional En Operación De Proyectos De Biocomercio";2
113;"Técnica Profesional En Operación De Servicios Turísticos Y Hoteleros";2
114;"Técnica Profesional En Operación De Sistemas De Manejo Ambiental";2
115;"Técnica Profesional En Operación Del Alojamiento Urbano Y Rural";2
116;"Técnica Profesional En Operación Integral De Ventas Turísticas";2
117;"Técnica Profesional En Operación Logística";2
118;"Técnica Profesional En Operación Portuaria";2
119;"Técnica Profesional En Operación Turística";2
120;"Técnica Profesional En Operación Turística Y Gastronómica";2
121;"Técnica Profesional En Operación Turística Y Hotelera";2
122;"Técnica Profesional En Operación Y Logística De Empresas Agroindustriales";2
123;"Técnica Profesional En Operaciones Administrativas Y Financieras De La Salud";2
124;"Técnica Profesional En Operaciones Aduaneras";2
125;"Técnica Profesional En Operaciones Agroindustriales";2
126;"Técnica Profesional En Operaciones Bancarias Y Servicios Financieros";2
127;"Técnica Profesional En Operaciones Comerciales";2
128;"Técnica Profesional En Operaciones Contables";2
129;"Técnica Profesional En Operaciones De Comercio Exterior";2
130;"Técnica Profesional En Operaciones De La Cadena Logística";2
131;"Técnica Profesional En Operaciones Del Comercio Exterior";2
132;"Técnica Profesional En Operaciones Logísticas";2
133;"Técnica Profesional En Operaciones Logísticas Y Portuaria";2
134;"Técnica Profesional En Operaciones Mineras";2
135;"Técnica Profesional En Operaciones Portuarias";2
136;"Técnica Profesional En Operaciones Turísticas";2
137;"Técnica Profesional En Procesos Administrativos";2
138;"Técnica Profesional En Procesos Administrativos Agropecuarios";2
139;"Técnica Profesional En Procesos Administrativos De Hotelería Y Turismo";2
140;"Técnica Profesional En Procesos Administrativos De La Seguridad Social";2
141;"Técnica Profesional En Procesos Administrativos De Salud";2
142;"Técnica Profesional En Procesos Administrativos De Talento Humano";2
143;"Técnica Profesional En Procesos Administrativos Empresariales";2
144;"Técnica Profesional En Procesos Administrativos En Salud";2
145;"Técnica Profesional En Procesos Administrativos Municipales";2
146;"Técnica Profesional En Procesos Administrativos Para Fincas Cafeteras";2
147;"Técnica Profesional En Procesos Administrativos Portuarios";2
148;"Técnica Profesional En Procesos Administrativos Públicos";2
149;"Técnica Profesional En Procesos Administrativos Turísticos";2
150;"Técnica Profesional En Procesos Administrativos Y Financieros";2
151;"Técnica Profesional En Procesos Aduaneros";2
152;"Técnica Profesional En Procesos Aduaneros Y Tributarios";2
153;"Técnica Profesional En Procesos Ambientales";2
154;"Técnica Profesional En Procesos Bancarios Y Financieros";2
155;"Técnica Profesional En Procesos Comerciales";2
156;"Técnica Profesional En Procesos Comerciales Y Financieros";2
157;"Técnica Profesional En Procesos Contables";2
158;"Técnica Profesional En Procesos Contables Sistematizados";2
159;"Técnica Profesional En Procesos Contables Y Tributarios";2
160;"Técnica Profesional En Procesos De Agricultura Orgánica";2
161;"Técnica Profesional En Procesos De Almacenamiento";2
162;"Técnica Profesional En Procesos De Comercio Exterior";2
163;"Técnica Profesional En Procesos De Comercio Exterior Y Logística";2
164;"Técnica Profesional En Procesos De Comercio Internacional";2
165;"Técnica Profesional En Procesos De Importación Y Exportación";2
166;"Técnica Profesional En Procesos De Mercadeo";2
167;"Técnica Profesional En Procesos De Operación Turística";2
168;"Técnica Profesional En Procesos Del Talento Humano";2
169;"Técnica Profesional En Procesos Del Turismo Sostenible";2
170;"Técnica Profesional En Procesos Empresariales";2
171;"Técnica Profesional En Procesos Empresariales De Entidades Hospitalarias";2
172;"Técnica Profesional En Procesos Empresariales Para Mipymes";2
173;"Técnica Profesional En Procesos Empresariales Rurales";2
174;"Técnica Profesional En Procesos En Marketing Internacional";2
175;"Técnica Profesional En Procesos Financieros";2
176;"Técnica Profesional En Procesos Financieros Y Bancarios";2
177;"Técnica Profesional En Procesos Hoteleros Y Turísticos";2
178;"Técnica Profesional En Procesos Logísticos";2
179;"Técnica Profesional En Procesos Logísticos De Empresas Turísticas";2
180;"Técnica Profesional En Procesos Logísticos Empresariales";2
181;"Técnica Profesional En Procesos Logísticos Y De Comercio Exterior";2
182;"Técnica Profesional En Procesos Publicitarios Y De Mercadeo";2
183;"Técnica Profesional En Producción Acuícola";2
184;"Técnica Profesional En Producción Agropecuaria";2
185;"Técnica Profesional En Producción De Café";2
186;"Técnica Profesional En Producción De Eventos Y Entretenimiento";2
187;"Técnica Profesional En Publicidad Y Mercadeo";2
188;"Técnica Profesional En Reconocimiento Aduanero";2
189;"Técnica Profesional En Secretariado Bilingüe";2
190;"Técnica Profesional En Secretariado Ejecutivo";2
191;"Técnica Profesional En Secretariado Ejecutivo Sistematizado";2
192;"Técnica Profesional En Seguridad Industrial";2
193;"Técnica Profesional En Seguridad Y Salud En El Trabajo";2
194;"Técnica Profesional En Servicios A Bordo";2
195;"Técnica Profesional En Servicios Administrativos De Salud";2
196;"Técnica Profesional En Servicios De Alojamiento Y Hospedaje";2
197;"Técnica Profesional En Servicios Financieros";2
198;"Técnica Profesional En Servicios Recreativos Y De Guianza";2
199;"Técnica Profesional En Servicios Turísticos Y Hoteleros";2
200;"Técnica Profesional En Sistemas Contables";2
201;"Técnica Profesional En Soporte De Sistemas De Calidad Seguridad Y Ambiente";2
202;"Técnica Profesional En Soporte Para Centros De Servicio";2
203;"Técnica Profesional En Transformación Y Comercialización De Productos Agroalimentarios";2
204;"Técnica Profesional En Transporte Terrestre De Carga";2
205;"Técnica Profesional En Turismo";2
206;"Técnica Profesional En Turismo Ambiental";2
207;"Técnica Profesional En Turismo Sostenible";2
208;"Técnico En Gestión Ambiental Empresarial";2
209;"Técnico En Operación De Servicios Turísticos";2
210;"Técnico Profesional En Análisis De Mercados";2
211;"Técnico Profesional En Asesoría Comercial Para Soluciones Digitales";2
212;"Técnico Profesional En Avalúos Inmobiliarios Urbanos Y Rurales";2
213;"Técnico Profesional En Biocomercio";2
214;"Técnico Profesional En Comercio Exterior";2
215;"Técnico Profesional En Comercio Exterior Y Negocios Internacionales";2
216;"Técnico Profesional En Comercio Internacional";2
217;"Técnico Profesional En Comercio Y Negocios Internacionales";2
218;"Técnico Profesional En Conducción De Vehículos De Transporte Terrestre";2
219;"Técnico Profesional En Construcción Y Administración De Obras Civiles";2
220;"Técnico Profesional En Contabilidad";2
221;"Técnico Profesional En Contabilidad Y Aseguramiento De La Información Financiera";2
222;"Técnico Profesional En Contabilidad Y Costos";2
223;"Técnico Profesional En Contabilidad Y Finanzas";2
224;"Técnico Profesional En Contabilidad Y Tributaria";2
225;"Técnico Profesional En Culinaria";2
226;"Técnico Profesional En Documentación De Procesos De Calidad";2
227;"Técnico Profesional En Empresas Agropecuarias";2
228;"Técnico Profesional En Exportaciones E Importaciones";2
229;"Técnico Profesional En Formulación E Implementación De Proyectos Agropecuarios";2
230;"Técnico Profesional En Gastronomía";2
231;"Técnico Profesional En Gestión Documental";2
232;"Técnico Profesional En Gestión Empresarial En Economía Solidaria";2
233;"Técnico Profesional En Gestión Y Auditoría Ambiental";2
234;"Técnico Profesional En Guianza Y Servicios Recreativos";2
235;"Técnico Profesional En Hotelería Y Turismo";2
236;"Técnico Profesional En Investigación De Mercados";2
237;"Técnico Profesional En Logística";2
238;"Técnico Profesional En Logística De Agronegocios";2
239;"Técnico Profesional En Logística Del Transporte De Mercancía";2
240;"Técnico Profesional En Logística Empresarial";2
241;"Técnico Profesional En Mercadeo";2
242;"Técnico Profesional En Mercadeo De Negocios Forestales";2
243;"Técnico Profesional En Mercadeo Y Publicidad";2
244;"Técnico Profesional En Mercadeo Y Ventas";2
245;"Técnico Profesional En Operación De Almacenes Y Transporte";2
246;"Técnico Profesional En Operación De Comercio Exterior";2
247;"Técnico Profesional En Operación De Negocios Y Servicio Al Cliente";2
248;"Técnico Profesional En Operación De Procesos Aduaneros";2
249;"Técnico Profesional En Operación De Servicios De Guianza";2
250;"Técnico Profesional En Operación De Servicios Gastronómicos";2
251;"Técnico Profesional En Operación De Servicios Turísticos";2
252;"Técnico Profesional En Operación Del Alojamiento Urbano Y Rural";2
253;"Técnico Profesional En Operación Del Transporte Multimodal";2
254;"Técnico Profesional En Operación Hotelera";2
255;"Técnico Profesional En Operación Integral De Ventas Turísticas";2
256;"Técnico Profesional En Operación Logística";2
257;"Técnico Profesional En Operación Turística";2
258;"Técnico Profesional En Operaciones Bancarias Y Financieras";2
259;"Técnico Profesional En Operaciones De Comercio Electrónico";2
260;"Técnico Profesional En Operaciones De Importación Y Exportación";2
261;"Técnico Profesional En Operaciones Logísticas";2
262;"Técnico Profesional En Operaciones Portuarias";2
263;"Técnico Profesional En Operaciones Turísticas";2
264;"Técnico Profesional En Procesos Administrativos";2
265;"Técnico Profesional En Procesos Administrativos De Diseño De Modas";2
266;"Técnico Profesional En Procesos Administrativos De Obras De Construcción";2
267;"Técnico Profesional En Procesos Administrativos De Seguridad Y Salud En El Trabajo";2
268;"Técnico Profesional En Procesos Administrativos Turísticos";2
269;"Técnico Profesional En Procesos Administrativos Y Financieros";2
270;"Técnico Profesional En Procesos Ambientales";2
271;"Técnico Profesional En Procesos Contables";2
272;"Técnico Profesional En Procesos Contables Y Tributarios";2
273;"Técnico Profesional En Procesos De Gestión Publica";2
274;"Técnico Profesional En Procesos De Importaciones Y Exportaciones";2
275;"Técnico Profesional En Procesos De Mercadeo Digital";2
276;"Técnico Profesional En Procesos De Operación Turística";2
277;"Técnico Profesional En Procesos Del Talento Humano";2
278;"Técnico Profesional En Procesos Empresariales";2
279;"Técnico Profesional En Procesos Financieros";2
280;"Técnico Profesional En Procesos Hoteleros Y De Servicios";2
281;"Técnico Profesional En Promoción De Proyectos Sociales";2
282;"Técnico Profesional En Relacionamiento Digital Con Clientes Enfoque Crm";2
283;"Técnico Profesional En Seguridad Y Salud En El Trabajo";2
284;"Técnico Profesional En Servicios A Bordo";2
285;"Técnico Profesional En Servicios Comerciales";2
286;"Técnico Profesional En Servicios Turísticos Y Hoteleros";2
287;"Técnico Profesional En Turismo De Aventura";2
288;"Técnico Profesional En Ventas Y Negocios";2
289;"Asistencia Administrativa";2
290;"Alistamiento Y Operación De Maquinaria Para La Producción Industrial";2
291;"Técnico Auxiliar Enfermería";2
292;"Técnico En Documentación Y Registro De Operaciones Contables";2
293;"Técnico Laboral En Auxiliar Administrativo";2
294;"Técnico Auxiliar Bancario";2
295;"Técnico Auxiliar Bancario Y Financiero";2
296;"Técnico Profesional En Contabilización De Operaciones Comerciales";2
297;"Técnico En Producción De Información Administrativa";2
298;"Técnica En Venta De Productos Y Servicios Financieros";2
299;"Técnica Profesional En Mecánica Industrial";2
300;"Técnica Profesional En Soporte De Sistemas De Información";2
301;"Técnica Profesional En Sistemas";2
302;"Técnica Profesional En Análisis Y Diseño De Bases De Datos";2
303;"Tecnología Comercial Y Financiera";3
304;"Tecnología Contable Y Tributaria";3
305;"Tecnología De Gestión Administrativa En Servicios De Salud";3
306;"Tecnología Empresarial";3
307;"Tecnología En Administración Agropecuaria";3
308;"Tecnología En Administración Bancaria";3
309;"Tecnología En Administración De Empresas";3
310;"Tecnología En Administración De La Producción Acuícola";3
311;"Tecnología En Administración De Negocios Internacionales";3
312;"Tecnología En Administración De Servicios De Salud";3
313;"Tecnología En Administración De Sistemas De Información Y Documentación";3
314;"Tecnología En Administración Del Talento Humano";3
315;"Tecnología En Administración Deportiva";3
316;"Tecnología En Administración Financiera";3
317;"Tecnología En Administración Hospitalaria";3
318;"Tecnología En Administración Judicial";3
319;"Tecnología En Administración Turística Y Del Patrimonio";3
320;"Tecnología En Administración Y Ejecución De Construcciones";3
321;"Tecnología En Administración Y Finanzas";3
322;"Tecnología En Análisis De Costos Y Presupuestos";3
323;"Tecnología En Análisis De Operaciones Aduaneras Y Financieras";3
324;"Tecnología En Aseguramiento De La Calidad En Empresas Agroindustriales";3
325;"Tecnología En Asistencia Gerencial";3
326;"Tecnología En Auditoría Y Control De Informática";3
327;"Tecnología En Auditoría Y Costos";3
328;"Tecnología En Banca Y Finanzas";3
329;"Tecnología En Biocomercio Sostenible";3
330;"Tecnología En Calidad";3
331;"Tecnología En Comercio Exterior";3
332;"Tecnología En Comercio Exterior Y Negocios Internacionales";3
333;"Tecnología En Comercio Internacional";3
334;"Tecnología En Comercio Y Negocios Internacionales";3
335;"Tecnología En Construcción De Obras Civiles";3
336;"Tecnología En Contabilidad";3
337;"Tecnología En Contabilidad E Impuestos";3
338;"Tecnología En Contabilidad Financiera";3
339;"Tecnología En Contabilidad Sistematizada";3
340;"Tecnología En Contabilidad Y Costos";3
341;"Tecnología En Contabilidad Y Finanzas";3
342;"Tecnología En Contabilidad Y Tributaria";3
343;"Tecnología En Coordinación Del Proceso Para Diseño De Medios Impresos";3
344;"Tecnología En Coordinación Logística De Eventos Culturales Y Artísticos";3
345;"Tecnología En Costos Y Auditoría";3
346;"Tecnología En Costos Y Presupuestos";3
347;"Tecnología En Dirección Comercial";3
348;"Tecnología En Dirección De Empresas Turísticas Y Hoteleras";3
349;"Tecnología En Dirección De Servicios Turísticos";3
350;"Tecnología En Dirección De Servicios Turísticos Y Recreativos";3
351;"Tecnología En Dirección De Ventas";3
352;"Tecnología En Dirección Logística Del Turismo De Salud";3
353;"Tecnología En Dirección Y Gestión De La Cadena Turística";3
354;"Tecnología En Distribución Física Internacional";3
355;"Tecnología En Ecología Y Turismo";3
356;"Tecnología En Ecoturismo";3
357;"Tecnología En Finanzas";3
358;"Tecnología En Finanzas Y Sistemas Contables";3
359;"Tecnología En Formulación De Proyectos";3
360;"Tecnología En Formulación Y Gestión De Proyectos Sociales";3
361;"Tecnología En Gastronomía";3
362;"Tecnología En Gastronomía Y Cocina";3
363;"Tecnología En Gastronomía Y Gestión De Restaurantes";3
364;"Tecnología En Gestión Administrativa";3
365;"Tecnología En Gestión Administrativa De Empresas De Salud";3
366;"Tecnología En Gestión Administrativa De La Seguridad Social";3
367;"Tecnología En Gestión Administrativa De Servicios De Salud";3
368;"Tecnología En Gestión Administrativa Y De Proyectos";3
369;"Tecnología En Gestión Administrativa Y Financiera";3
370;"Tecnología En Gestión Aeroportuaria";3
371;"Tecnología En Gestión Agroindustrial";3
372;"Tecnología En Gestión Ambiental";3
373;"Tecnología En Gestión Ambiental Industrial";3
374;"Tecnología En Gestión Ambiental Territorial";3
375;"Tecnología En Gestión Ambiental Y Servicios Públicos";3
376;"Tecnología En Gestión Bancaria Y De Entidades Financieras";3
377;"Tecnología En Gestión Bancaria Y De Inversión Financiera";3
378;"Tecnología En Gestión Bancaria Y Entidades Financieras";3
379;"Tecnología En Gestión Bancaria Y Financiera";3
380;"Tecnología En Gestión Bibliotecaria";3
381;"Tecnología En Gestión Comercial";3
382;"Tecnología En Gestión Comercial De Servicios";3
383;"Tecnología En Gestión Comercial Internacional";3
384;"Tecnología En Gestión Comercial Y De Mercados";3
385;"Tecnología En Gestión Comercial Y De Negocios";3
386;"Tecnología En Gestión Comercial Y Financiera";3
387;"Tecnología En Gestión Comercial Y Mercadeo";3
388;"Tecnología En Gestión Comercial Y Publicitaria";3
389;"Tecnología En Gestión Comunicativa Y Relaciones Públicas";3
390;"Tecnología En Gestión Contable";3
391;"Tecnología En Gestión Contable Financiera";3
392;"Tecnología En Gestión Contable Y De Costos";3
393;"Tecnología En Gestión Contable Y Financiera";3
394;"Tecnología En Gestión Contable Y Tributaria";3
395;"Tecnología En Gestión De Aerolíneas Y Agencias De Viajes";3
396;"Tecnología En Gestión De Agroindustrias Alimenticias";3
397;"Tecnología En Gestión De Bionegocios";3
398;"Tecnología En Gestión De Bpo";3
399;"Tecnología En Gestión De Calidad";3
400;"Tecnología En Gestión De Calidad Seguridad Salud Ocupacional Y Ambiente";3
401;"Tecnología En Gestión De Centros De Servicio";3
402;"Tecnología En Gestión De Comercio Exterior";3
403;"Tecnología En Gestión De Comercio Exterior Y Logística";3
404;"Tecnología En Gestión De Comercio Internacional";3
405;"Tecnología En Gestión De Destinos Turísticos";3
406;"Tecnología En Gestión De Empresas";3
407;"Tecnología En Gestión De Empresas Agroforestales";3
408;"Tecnología En Gestión De Empresas Agroindustriales";3
409;"Tecnología En Gestión De Empresas Agropecuarias";3
410;"Tecnología En Gestión De Empresas Asociativas Y Organizaciones Comunitarias";3
411;"Tecnología En Gestión De Empresas De Economía Solidaria";3
412;"Tecnología En Gestión De Empresas De La Salud";3
413;"Tecnología En Gestión De Empresas De Salud";3
414;"Tecnología En Gestión De Empresas De Servicios";3
415;"Tecnología En Gestión De Empresas Pecuarias";3
416;"Tecnología En Gestión De Empresas Turísticas";3
417;"Tecnología En Gestión De Empresas Turísticas Y Hoteleras";3
418;"Tecnología En Gestión De Empresas Y Destinos Turísticos";3
419;"Tecnología En Gestión De Eventos Para El Desarrollo Del Turismo";3
420;"Tecnología En Gestión De Exportaciones E Importaciones";3
421;"Tecnología En Gestión De Finanzas Y Comercio Internacional";3
422;"Tecnología En Gestión De Finanzas Y Negocios Internacionales";3
423;"Tecnología En Gestión De Industrias Creativas";3
424;"Tecnología En Gestión De La Calidad";3
425;"Tecnología En Gestión De La Producción Agrícola Ecológica";3
426;"Tecnología En Gestión De La Producción Industrial";3
427;"Tecnología En Gestión De La Propiedad Horizontal";3
428;"Tecnología En Gestión De La Seguridad E Higiene Laboral";3
429;"Tecnología En Gestión De La Seguridad En El Trabajo";3
430;"Tecnología En Gestión De La Seguridad Y Salud En El Trabajo";3
431;"Tecnología En Gestión De Logística Internacional";3
432;"Tecnología En Gestión De Marketing Internacional";3
433;"Tecnología En Gestión De Mercadeo";3
434;"Tecnología En Gestión De Mercadeo Internacional";3
435;"Tecnología En Gestión De Mercadeo Y Negocios Internacionales";3
436;"Tecnología En Gestión De Mercadeo Y Publicidad";3
437;"Tecnología En Gestión De Mercadeo Y Ventas";3
438;"Tecnología En Gestión De Mercados";3
439;"Tecnología En Gestión De Mercadotecnia";3
440;"Tecnología En Gestión De Mercadotecnia Y Publicidad";3
441;"Tecnología En Gestión De Microfinanzas";3
442;"Tecnología En Gestión De Negocios";3
443;"Tecnología En Gestión De Negocios Fiduciarios";3
444;"Tecnología En Gestión De Negocios Forestales";3
445;"Tecnología En Gestión De Negocios Internacionales";3
446;"Tecnología En Gestión De Obras Civiles Y Construcciones";3
447;"Tecnología En Gestión De Plantaciones De Palma De Aceite";3
448;"Tecnología En Gestión De Procesos Administrativos";3
449;"Tecnología En Gestión De Procesos Administrativos De Salud";3
450;"Tecnología En Gestión De Procesos De Calidad";3
451;"Tecnología En Gestión De Procesos Logísticos";3
452;"Tecnología En Gestión De Productos Y Empresas De Artesanías";3
453;"Tecnología En Gestión De Recursos Aéreos";3
454;"Tecnología En Gestión De Recursos En Plantas De Producción";3
455;"Tecnología En Gestión De Recursos Humanos";3
456;"Tecnología En Gestión De Redes De Telecomunicaciones";3
457;"Tecnología En Gestión De Riesgos Y Seguros";3
458;"Tecnología En Gestión De Salud";3
459;"Tecnología En Gestión De Salud Ocupacional Seguridad Y Medio Ambiente";3
460;"Tecnología En Gestión De Seguridad Vial";3
461;"Tecnología En Gestión De Seguridad Y Salud En El Trabajo";3
462;"Tecnología En Gestión De Servicios De Bienestar Turísticos Y Hoteleros";3
463;"Tecnología En Gestión De Servicios De Salud";3
464;"Tecnología En Gestión De Servicios Financieros";3
465;"Tecnología En Gestión De Servicios Hoteleros Y Turísticos";3
466;"Tecnología En Gestión De Servicios Para Aerolíneas";3
467;"Tecnología En Gestión De Servicios Turísticos";3
468;"Tecnología En Gestión De Servicios Turísticos Y Hoteleros";3
469;"Tecnología En Gestión De Sistemas";3
470;"Tecnología En Gestión De Sistemas De Información";3
471;"Tecnología En Gestión De Sistemas De Información Documental Y Archivística";3
472;"Tecnología En Gestión De Sistemas De Información Y Documentación";3
473;"Tecnología En Gestión De Sistemas Electromecánicos";3
474;"Tecnología En Gestión De Sistemas Informáticos";3
475;"Tecnología En Gestión De Sistemas Logísticos";3
476;"Tecnología En Gestión De Transportes";3
477;"Tecnología En Gestión De Ventas Y Negocios";3
478;"Tecnología En Gestión Del Comercio Exterior";3
479;"Tecnología En Gestión Del Ecoturismo";3
480;"Tecnología En Gestión Del Talento Humano";3
481;"Tecnología En Gestión Del Turismo Sostenible";3
482;"Tecnología En Gestión Deportiva";3
483;"Tecnología En Gestión Ecoturística Y Hotelera";3
484;"Tecnología En Gestión Ejecutiva Bilingüe";3
485;"Tecnología En Gestión Empresarial";3
486;"Tecnología En Gestión Empresarial Agropecuaria";3
487;"Tecnología En Gestión Empresarial Comunitaria";3
488;"Tecnología En Gestión Empresarial De Economía Solidaria";3
489;"Tecnología En Gestión Empresarial Y De La Innovación";3
490;"Tecnología En Gestión Empresarial Y Financiera";3
491;"Tecnología En Gestión En Comunidades Étnicas De Proyectos Agropecuarios Sostenibles";3
492;"Tecnología En Gestión En Finanzas";3
493;"Tecnología En Gestión En Logística Militar";3
494;"Tecnología En Gestión En Salud Ocupacional";3
495;"Tecnología En Gestión Financiera";3
496;"Tecnología En Gestión Financiera Del Comercio Internacional";3
497;"Tecnología En Gestión Financiera Y Contable";3
498;"Tecnología En Gestión Financiera Y De Recursos De La Salud";3
499;"Tecnología En Gestión Financiera Y De Tesorería";3
500;"Tecnología En Gestión Financiera Y Tributaria";3
501;"Tecnología En Gestión Gastronómica";3
502;"Tecnología En Gestión Gastronómica Y De Bebidas";3
503;"Tecnología En Gestión Gastronómica Y Sommelier";3
504;"Tecnología En Gestión Hotelera";3
505;"Tecnología En Gestión Hotelera Y De Servicios";3
506;"Tecnología En Gestión Hotelera Y Turística";3
507;"Tecnología En Gestión Industrial";3
508;"Tecnología En Gestión Integrada De La Calidad Medio Ambiente Seguridad Y Salud Ocupacional";3
509;"Tecnología En Gestión Integral De La Calidad Y Seguridad Industrial";3
510;"Tecnología En Gestión Integral De Seguros";3
511;"Tecnología En Gestión Integral Del Riesgo En Seguros";3
512;"Tecnología En Gestión Integral En Fondos De Pensiones Y Cesantías";3
513;"Tecnología En Gestión Internacional Del Comercio";3
514;"Tecnología En Gestión Logística";3
515;"Tecnología En Gestión Logística Empresarial";3
516;"Tecnología En Gestión Logística En Compras E Inventarios";3
517;"Tecnología En Gestión Logística Integral";3
518;"Tecnología En Gestión Logística Internacional";3
519;"Tecnología En Gestión Logística Nacional E Internacional";3
520;"Tecnología En Gestión Logística Portuaria";3
521;"Tecnología En Gestión Logística Portuaria Y Aduanera";3
522;"Tecnología En Gestión Logística Y De Comercio Internacional";3
523;"Tecnología En Gestión Logística Y Portuaria";3
524;"Tecnología En Gestión Naviera Y Portuaria";3
525;"Tecnología En Gestión Portuaria";3
526;"Tecnología En Gestión Pública";3
527;"Tecnología En Gestión Pública Contable";3
528;"Tecnología En Gestión Pública Territorial";3
529;"Tecnología En Gestión Tributaria Y Financiera";3
530;"Tecnología En Gestión Turística";3
531;"Tecnología En Gestión Turística Y Gastronómica";3
532;"Tecnología En Gestión Turística Y Hotelera";3
533;"Tecnología En Gestión Y Administración Agrícola";3
534;"Tecnología En Gestión Y Auditoría Ambiental";3
535;"Tecnología En Gestión Y Construcción De Obras Civiles";3
536;"Tecnología En Gobierno Local";3
537;"Tecnología En Hotelería Turismo Y Relaciones Publicas";3
538;"Tecnología En Hotelería Y Turismo";3
539;"Tecnología En Informática Empresarial";3
540;"Tecnología En Inteligencia De Mercados";3
541;"Tecnología En Logística";3
542;"Tecnología En Logística De Almacenaje E Inventarios";3
543;"Tecnología En Logística De Transporte";3
544;"Tecnología En Logística Del Comercio Exterior";3
545;"Tecnología En Logística Del Transporte Internacional De Mercancías";3
546;"Tecnología En Logística Del Transporte Multimodal";3
547;"Tecnología En Logística Empresarial";3
548;"Tecnología En Logística Industrial";3
549;"Tecnología En Logística Integral";3
550;"Tecnología En Logística Internacional";3
551;"Tecnología En Logística Militar";3
552;"Tecnología En Logística Portuaria Y Del Transporte";3
553;"Tecnología En Logística Y Mercadeo";3
554;"Tecnología En Logística Y Mercadeo Internacional";3
555;"Tecnología En Manejo De Gestión Ambiental";3
556;"Tecnología En Marketing";3
557;"Tecnología En Marketing De Servicios Turísticos";3
558;"Tecnología En Marketing Digital";3
559;"Tecnología En Mercadeo";3
560;"Tecnología En Mercadeo Agroindustrial";3
561;"Tecnología En Mercadeo Agropecuario";3
562;"Tecnología En Mercadeo De Productos Ecoturísticos";3
563;"Tecnología En Mercadeo Internacional";3
564;"Tecnología En Mercadeo Publicidad Y Ventas";3
565;"Tecnología En Mercadeo Y Comercialización";3
566;"Tecnología En Mercadeo Y Comunicación De La Moda";3
567;"Tecnología En Mercadeo Y Diseño Publicitario";3
568;"Tecnología En Mercadeo Y Gestión Comercial";3
569;"Tecnología En Mercadeo Y Negocios Internacionales";3
570;"Tecnología En Mercadeo Y Publicidad";3
571;"Tecnología En Mercadeo Y Ventas";3
572;"Tecnología En Mercadotecnia";3
573;"Tecnología En Mercadotecnia Y Publicidad";3
574;"Tecnología En Negociación Internacional";3
575;"Tecnología En Negocios Y Mercadeo";3
576;"Tecnología En Operaciones Financieras";3
577;"Tecnología En Operaciones Turísticas";3
578;"Tecnología En Organización De Eventos";3
579;"Tecnología En Procesos Administrativos De Salud";3
580;"Tecnología En Procesos Biotecnológicos Aplicados A La Industria";3
581;"Tecnología En Procesos Logísticos";3
582;"Tecnología En Procesos Productivos De La Madera";3
583;"Tecnología En Producción De La Moda";3
584;"Tecnología En Producción Industrial";3
585;"Tecnología En Producción Industrial De Vestuario";3
586;"Tecnología En Regencia De Farmacia";3
587;"Tecnología En Salud Ocupacional";3
588;"Tecnología En Seguridad Y Salud En El Trabajo";3
589;"Tecnología En Servicio A Bordo";3
590;"Tecnología En Sistemas De Gestión Ambiental";3
591;"Tecnología En Sistemas De Gestión De La Calidad Alimentaria";3
592;"Tecnología En Sistemas De Información En Salud";3
593;"Tecnología En Sistemas E Informática Empresarial";3
594;"Tecnología En Sistemas Integrados De Gestión";3
595;"Tecnología En Sistemas Integrados De Gestión De Calidad";3
596;"Tecnología En Supervisión De La Fabricación De Productos Metálicos Soldados";3
597;"Tecnología En Supervisión De Procesos Productivos Acuícolas";3
598;"Tecnología En Transformación Del Cacao Y Elaboración De Productos De Chocolatería Industrial";3
599;"Tecnología En Tributaria";3
600;"Tecnología En Turismo E Idiomas";3
601;"Tecnología En Turismo Sostenible";3
602;"Tecnología En Turismo Y Hotelería";3
603;"Tecnología Financiera Y Contable";3
604;"Tecnología Gestión Contable";3
605;"Tecnología Naval En Administración Marítima";3
606;"Tecnología Turística En Desarrollo Local";3
607;"Turismo Y Desarrollo Local";3
608;"Análisis Y Desarrollo De Sistemas De Información";3
609;"Tecnología En Contaduría Financiera";3
610;"Tecnología En Gestión Documental";3
611;"Tecnología En Electrónica Industrial";3
612;"Tecnología En Química";3
613;"Tecnología En Administración Documental";3
614;"Tecnología En Gestión De Procesos Industriales";3
615;"Tecnología En Gestión De Procesos Empresariales";3
616;"Tecnología En Mantenimiento De Equipos De Computo";3
617;"Tecnología En Sistemas";3
618;"Tecnología En Informática";3
619;"Tecnología En Electrónica";3
620;"Tecnología En Mantenimiento Electrónico E Instrumental Industrial";3
621;"Tecnología En Control De Calidad";3
622;"Tecnología En Telecomunicaciones";3
623;"Tecnología En Mecánica Industrial";3
624;"Tecnología En Desarrollo De Software";3
625;"Tecnología En Sistematización De Datos";3
626;"Tecnología En Computación Y Desarrollo De Software";3
627;"Tecnología En Desarrollo Informático";3
628;"Administración";4
629;"Administración Aeronáutica";4
630;"Administración Agroindustrial";4
631;"Administración Agropecuaria";4
632;"Administración Ambiental";4
633;"Administración Ambiental Y De Los Recursos Naturales";4
634;"Administración Ambiental Y Sanitaria";4
635;"Administración Bancaria Y Financiera";4
636;"Administración Comercial";4
637;"Administración Comercial Y De Mercadeo";4
638;"Administración Comercial Y De Sistemas";4
639;"Administración Comercial Y Financiera";4
640;"Administración De Agronegocios";4
641;"Administración De Banca Y Finanzas";4
642;"Administración De Comercio Exterior";4
643;"Administración De Empresas";4
644;"Administración De Empresas Agroindustriales";4
645;"Administración De Empresas Agropecuarias";4
646;"Administración De Empresas Comerciales";4
647;"Administración De Empresas De Servicios";4
648;"Administración De Empresas Deportivas";4
649;"Administración De Empresas En Telecomunicaciones";4
650;"Administración De Empresas Globales";4
651;"Administración De Empresas Turísticas";4
652;"Administración De Empresas Turísticas Y Hoteleras";4
653;"Administración De Empresas Y Finanzas";4
654;"Administración De Empresas Y Gestión Ambiental";4
655;"Administración De Hotelería Y Turismo";4
656;"Administración De La Calidad";4
657;"Administración De La Salud Ocupacional";4
658;"Administración De La Seguridad Social";4
659;"Administración De La Seguridad Y Salud Ocupacional";4
660;"Administración De Mercadeo";4
661;"Administración De Mercadeo Y Finanzas";4
662;"Administración De Mercadeo Y Logística Internacionales";4
663;"Administración De Negocios";4
664;"Administración De Negocios Globales";4
665;"Administración De Negocios Turísticos";4
666;"Administración De Negocios Turísticos Y Hoteleros";4
667;"Administración De Obras De Arquitectura";4
668;"Administración De Servicios";4
669;"Administración De Servicios De Salud";4
670;"Administración De Servicios Turísticos";4
671;"Administración De Sistemas";4
672;"Administración De Sistemas De Información";4
673;"Administración De Sistemas Informáticos";4
674;"Administración De Turismo Sostenible Y Hotelería";4
675;"Administración Del Comercio Internacional";4
676;"Administración Del Turismo Sostenible";4
677;"Administración Deportiva";4
678;"Administración Empresas Agroindustriales";4
679;"Administración En Finanzas Y Negocios Internacionales";4
680;"Administración En Logística Y Producción";4
681;"Administración En Salud";4
682;"Administración En Salud Ocupacional";4
683;"Administración En Servicios De Salud";4
684;"Administración En Turismo";4
685;"Administración En Turismo Y Hotelería";4
686;"Administración En Turismo; Hotelería Y Gastronomía";4
687;"Administración Financiera";4
688;"Administración Financiera Y De Sistemas";4
689;"Administración Hotelera";4
690;"Administración Hotelera Y De Servicios";4
691;"Administración Hotelera Y Ecoturismo";4
692;"Administración Humana";4
693;"Administración Industrial";4
694;"Administración Informática";4
695;"Administración Integral De Riesgos De Seguridad Y Salud En El Trabajo";4
696;"Administración Logística";4
697;"Administración Marítima";4
698;"Administración Marítima Y Fluvial";4
699;"Administración Marítima Y Portuaria";4
700;"Administración Policial";4
701;"Administración Pública";4
702;"Administración Pública Y Gestión Social";4
703;"Administración Tecnológica";4
704;"Administración Turística";4
705;"Administración Turística Y Del Patrimonio";4
706;"Administración Turística Y Hotelera";4
707;"Administración Y Agronegocios";4
708;"Administración Y Dirección De Empresas";4
709;"Administración Y Emprendimiento";4
710;"Administración Y Finanzas";4
711;"Administración Y Gerencia";4
712;"Administración Y Marketing";4
713;"Administración Y Marketing Estratégico";4
714;"Administración Y Negocios Internacionales";4
715;"Administración Y Recursos Humanos";4
716;"Administración Y Servicio";4
717;"Administración Y Sistemas";4
718;"Banca Y Finanzas";4
719;"Banca Y Finanzas Internacionales";4
720;"Banca Y Seguros";4
721;"Ciencias Administrativas";4
722;"Ciencias Contables";4
723;"Ciencias Contables Y Financieras";4
724;"Ciencias Económicas";4
725;"Ciencias Empresariales";4
726;"Comercio Exterior";4
727;"Comercio Exterior Y Marketing Internacional";4
728;"Comercio Internacional";4
729;"Comercio Internacional Y Finanzas";4
730;"Comercio Y Finanzas Internacionales";4
731;"Comercio Y Negocios Globales";4
732;"Comercio Y Negocios Internacionales";4
733;"Construcción Y Gestión En Arquitectura";4
734;"Contabilidad";4
735;"Contabilidad Y Administración";4
736;"Contabilidad Y Finanzas";4
737;"Contabilidad Y Tributación";4
738;"Contaduría Internacional";4
739;"Contaduría Pública";4
740;"Contaduría Pública Y Finanzas Internacionales";4
741;"Desarrollo Territorial";4
742;"Economía";4
743;"Economía Agraria";4
744;"Economía Gerencial";4
745;"Economía Internacional";4
746;"Economía Pública";4
747;"Economía Y Finanzas";4
748;"Economía Y Finanzas Internacionales";4
749;"Economía Y Gestión Ambiental";4
750;"Economía Y Microfinanzas";4
751;"Economía Y Negocios Internacionales";4
752;"Finanzas";4
753;"Finanzas Internacionales";4
754;"Finanzas Y Comercio Exterior";4
755;"Finanzas Y Comercio Internacional";4
756;"Finanzas Y Negocios Internacionales";4
757;"Finanzas Y Relaciones Internacionales";4
758;"Gerencia En Servicios Turísticos Y Hoteleros";4
759;"Gerencia En Sistemas De Información En Salud";4
760;"Gestión";4
761;"Gestión De Negocios";4
762;"Gestión De Puertos Y Aduanas";4
763;"Gestión De Recursos Humanos";4
764;"Gestión De Sistemas De Información";4
765;"Gestión Del Emprendimiento Y La Innovación";4
766;"Gestión Empresarial";4
767;"Gestión En Ecología Y Turismo";4
768;"Gestión En Hotelería Y Turismo";4
769;"Gestión Pública Y Desarrollo Social";4
770;"Gestión Tributaria";4
771;"Gestión Y Alta Dirección";4
772;"Gestión Y Desarrollo Urbano";4
773;"Gobierno";4
774;"Gobierno Y Asuntos Públicos";4
775;"Gobierno Y Relaciones Internacionales";4
776;"Hotelería Y Administración";4
777;"Hotelería Y Turismo";4
778;"Hotelería Y Turismo Ecológico";4
779;"Ingeniería Administrativa";4
780;"Ingeniería Administrativa Y De Finanzas";4
781;"Ingeniería Comercial";4
782;"Ingeniería Comercial Y Financiera";4
783;"Ingeniería Comercial Y Negocios Internacionales";4
784;"Ingeniería De Higiene Y Seguridad Industrial";4
785;"Ingeniería De La Producción Y Administración";4
786;"Ingeniería De Mercados";4
787;"Ingeniería De Negocios";4
788;"Ingeniería De Negocios Agroforestales";4
789;"Ingeniería De Producción";4
790;"Ingeniería Económica";4
791;"Ingeniería Empresarial";4
792;"Ingeniería Empresarial Y De Sistemas";4
793;"Ingeniería En Agronegocios";4
794;"Ingeniería En Gestión Empresarial";4
795;"Ingeniería Financiera";4
796;"Ingeniería Financiera Y De Negocios";4
797;"Ingeniería Industrial";4
798;"Ingeniería Industrial Y Comercial";4
799;"Ingeniería Industrial Y De Gestión Empresarial";4
800;"Ingeniería Industrial Y Sistemas";4
801;"Logística Empresarial";4
802;"Logística Internacional";4
803;"Logística Y Mercadeo Organizacional";4
804;"Marketing Y Administración";4
805;"Marketing Y Dirección De Empresas";4
806;"Marketing Y Gestión Comercial";4
807;"Marketing Y Logística";4
808;"Marketing Y Negocios Globales";4
809;"Marketing Y Negocios Internacionales";4
810;"Marketing Y Publicidad";4
811;"Mercadeo";4
812;"Mercadeo Agroindustrial";4
813;"Mercadeo Internacional Y Publicidad";4
814;"Mercadeo Nacional E Internacional";4
815;"Mercadeo Publicidad Y Ventas";4
816;"Mercadeo Y Negocios Internacionales";4
817;"Mercadeo Y Publicidad";4
818;"Mercadeo Y Ventas";4
819;"Mercadología";4
820;"Negocios Globales";4
821;"Negocios Internacionales";4
822;"Negocios Internacionales Y Turismo";4
823;"Negocios Y Finanzas Internacionales";4
824;"Relaciones Económicas Internacionales";4
825;"Relaciones Industriales";4
826;"Relaciones Internacionales";4
827;"Relaciones Internacionales Y Estudios Políticos";4
828;"Relaciones Internacionales Y Negociaciones";4
829;"Turismo";4
830;"Ingeniería Civil";4
831;"Ingeniería Eléctrica";4
832;"Ingeniería Mecánica";4
833;"Ingeniería Química";4
834;"Ingeniería Electrónica";4
835;"Ingeniería De Sistemas";4
836;"Ingeniería De Minas ";4
837;"Ingeniería De Petróleos";4
838;"Arquitectura";4
839;"Ingeniería Ambiental";4
840;"Ingeniería Mecatrónica";4
841;"Ingeniería De Alimentos";4
842;"Ingeniería De Software";4
843;"Ingeniería De Telecomunicaciones";4
844;"Ingeniería Metalúrgica";4
845;"Ingeniería Biomédica";4
846;"Matemáticas";4
847;"Estadística";4
848;"Ingeniería De Sistemas Y Computación";4
849;"Psicología";4
850;"Medicina Y Cirugía";4
851;"Enfermería";4
852;"Derecho";4
853;"Ingeniería Catastral Y Geodesia";4
854;"Ingeniería Electrónica Y De Telecomunicaciones";4
855;"Química";4
856;"Química Farmacéutica";4
857;"Química Industrial";4
858;"Ingeniería Ambiental Y Sanitaria";4
859;"Física";4
860;"Diseño Industrial";4
861;"Ingeniería De Minas Y Metalurgia";4
862;"Ingeniería Telemática";4
863;"Ingeniería Informática";4
864;"Ingeniería En Multimedia";4
