id;name;lk
1;"Vehículo propio";"transport_type.own_vehicule"
2;"Vehículo no propio";"transport_type.not_own_vehicule"
3;"Motocicleta propia";"transport_type.own_bike"
4;"Motocicleta no propia";"transport_type.not_own_bike"