Abas Erp;abas erp;software abas erp;SOFTWARE ABAS ERP;software abas;SOFTWARE ABAS;abas erp software;ABAS ERP SOFTWARE;abas software;ABAS SOFTWARE;;;;;;ABAS ERP
Acuamatica Cloud Erp;acuamatica cloud erp;acuamatica;ACUAMATICA;software acuamatica;SOFTWARE ACUAMATICA;acuamatica software;ACUAMATICA SOFTWARE;software acuamatica cloud erp;SOFTWARE ACUAMATICA CLOUD ERP;acuamatica cloud erp software;ACUAMATICA CLOUD ERP SOFTWARE;;;;ACUAMATICA CLOUD ERP
Adobe Acrobat Professional;adobe acrobat professional;adobe;ADOBE;adobe acrobat;ADOBE ACROBAT;;;;;;;;;;ADOBE ACROBAT PROFESSIONAL
Alegra;alegra;alegra software;ALEGRA SOFTWARE;software alegra;SOFTWARE ALEGRA;;;;;;;;;;ALEGRA
Allprowebtools;allprowebtools;allprowebtools crm;ALLPROWEBTOOLS CRM;software allprowebtools;SOFTWARE ALLPROWEBTOOLS;software allprowebtools crm;SOFTWARE ALLPROWEBTOOLS CRM;allprowebtools software;ALLPROWEBTOOLS SOFTWARE;allprowebtools crm software;ALLPROWEBTOOLS CRM SOFTWARE;;;;ALLPROWEBTOOLS
Alvendi;alvendi;software alvendi;SOFTWARE ALVENDI;alvendi software;ALVENDI SOFTWARE;;;;;;;;;;ALVENDI
Anfix;anfix;software anfix;SOFTWARE ANFIX;anfix software;ANFIX SOFTWARE;;;;;;;;;;ANFIX
Aquilon Erp;aquilon erp;software aquilon erp;SOFTWARE AQUILON ERP;software aquilon;SOFTWARE AQUILON;aquilon;AQUILON;aquilon erp software;AQUILON ERP SOFTWARE;aquilon software;AQUILON SOFTWARE;;;;AQUILON ERP
Automation Studio;automation studio;software automation studio;SOFTWARE AUTOMATION STUDIO;automation studio software;AUTOMATION STUDIO SOFTWARE;;;;;;;;;;AUTOMATION STUDIO
Base;base;base crm;BASE CRM;software base;SOFTWARE BASE;software base crm;SOFTWARE BASE CRM;base software;BASE SOFTWARE;base crm software;BASE CRM SOFTWARE;;;;BASE
Bitrix24;bitrix24;software bitrix24;SOFTWARE BITRIX24;bitrix24 software;BITRIX24 SOFTWARE;;;;;;;;;;BITRIX24
Bizagi;bizagi;software bizagi;SOFTWARE BIZAGI;bizagi software;BIZAGI SOFTWARE;;;;;;;;;;BIZAGI
Bizautomation;bizautomation;software bizautomation;SOFTWARE BIZAUTOMATION;bizautomation software;BIZAUTOMATION SOFTWARE;;;;;;;;;;BIZAUTOMATION
Cegit;cegit;software cegit;SOFTWARE CEGIT;cegit software;CEGIT SOFTWARE;;;;;;;;;;CEGIT
Centralibos;centralibos;software centralibos;SOFTWARE CENTRALIBOS;centralibos software;CENTRALIBOS SOFTWARE;;;;;;;;;;CENTRALIBOS
Clauserp;clauserp;software clauserp;SOFTWARE CLAUSERP;clauserp software;CLAUSERP SOFTWARE;;;;;;;;;;CLAUSERP
Concar;concar;concar software;CONCAR SOFTWARE;software concar;SOFTWARE CONCAR;;;;;;;;;;CONCAR
Contalux;contalux;software contalux;SOFTWARE CONTALUX;contalux software;CONTALUX SOFTWARE;;;;;;;;;;CONTALUX
Contamoney;contamoney;software contamoney;SOFTWARE CONTAMONEY;contamoney software;CONTAMONEY SOFTWARE;;;;;;;;;;CONTAMONEY
Contasimple;contasimple;software contasimple;SOFTWARE CONTASIMPLE;contasimple software;CONTASIMPLE SOFTWARE;;;;;;;;;;CONTASIMPLE
Contasol;contasol;software contasol;SOFTWARE CONTASOL;contasol software;CONTASOL SOFTWARE;;;;;;;;;;CONTASOL
Cronos;cronos;software cronos;SOFTWARE CRONOS;cronos software;CRONOS SOFTWARE;;;;;;;;;;CRONOS
Data;data;data crm;DATA CRM;software data;SOFTWARE DATA;software data crm;SOFTWARE DATA CRM;data software;DATA SOFTWARE;data crm software;DATA CRM SOFTWARE;;;;DATA
Deacom;deacom;software deacom;SOFTWARE DEACOM;deacom software;DEACOM SOFTWARE;;;;;;;;;;DEACOM
Delsol;delsol;software delsol;SOFTWARE DELSOL;delsol software;DELSOL SOFTWARE;;;;;;;;;;DELSOL
Deltek;deltek;software deltek;SOFTWARE DELTEK;deltek software;DELTEK SOFTWARE;;;;;;;;;;DELTEK
Deskera;deskera;software deskera;SOFTWARE DESKERA;deskera software;DESKERA SOFTWARE;;;;;;;;;;DESKERA
Dolibarr Erp;dolibarr erp;software dolibarr erp;SOFTWARE DOLIBARR ERP;software dolibarr;SOFTWARE DOLIBARR;dolibarr;DOLIBARR;dolibarr erp software;DOLIBARR ERP SOFTWARE;dolibarr software;DOLIBARR SOFTWARE;;;;DOLIBARR ERP
Dropbox;dropbox;;;;;;;;;;;;;;DROPBOX
Eci-M1;eci-m1;software eci-m1;SOFTWARE ECI-M1;eci m1;ECI M1;software eci m1;SOFTWARE ECI M1;eci-m1 software;ECI-M1 SOFTWARE;eci m1 software;ECI M1 SOFTWARE;;;;ECI-M1
Ecount Erp;ecount erp;software ecount erp;SOFTWARE ECOUNT ERP;ecount;ECOUNT;software ecount;SOFTWARE ECOUNT;ecount erp software;ECOUNT ERP SOFTWARE;ecount software;ECOUNT SOFTWARE;;;;ECOUNT ERP
Epicor;epicor;software epicor;SOFTWARE EPICOR;epicor software;EPICOR SOFTWARE;;;;;;;;;;EPICOR
Erpag;erpag;software erpag;SOFTWARE ERPAG;erpag software;ERPAG SOFTWARE;;;;;;;;;;ERPAG
Erpnext;erpnext;software erpnext;SOFTWARE ERPNEXT;erpnext software;ERPNEXT SOFTWARE;;;;;;;;;;ERPNEXT
Evernote;evernote;software evernote;SOFTWARE EVERNOTE;evernote software;EVERNOTE SOFTWARE;;;;;;;;;;EVERNOTE
E-Views;e-views;econometric views;ECONOMETRIC VIEWS;software e-views;SOFTWARE E-VIEWS;software econometric views;SOFTWARE ECONOMETRIC VIEWS;e-views software;E-VIEWS SOFTWARE;econometric views software;ECONOMETRIC VIEWS SOFTWARE;;;;E-VIEWS
Factool;factool;software factool;SOFTWARE FACTOOL;factool software;FACTOOL SOFTWARE;;;;;;;;;;FACTOOL
Factura Directa;factura directa;software factura directa;SOFTWARE FACTURA DIRECTA;factura directa software;FACTURA DIRECTA SOFTWARE;;;;;;;;;;FACTURA DIRECTA
Factusol;factusol;factusol software;FACTUSOL SOFTWARE;software factusol;SOFTWARE FACTUSOL;;;;;;;;;;FACTUSOL
Financialforce Accounting;financialforce accounting;software financialforce accounting;SOFTWARE FINANCIALFORCE ACCOUNTING;financialforce accounting software;FINANCIALFORCE ACCOUNTING SOFTWARE;;;;;;;;;;FINANCIALFORCE ACCOUNTING
Forecast Pro Unlimited;forecast pro unlimited;software forecast pro unlimited;SOFTWARE FORECAST PRO UNLIMITED;forecast pro unlimited software;FORECAST PRO UNLIMITED SOFTWARE;;;;;;;;;;FORECAST PRO UNLIMITED
Gespymes;gespymes;software gespymes;SOFTWARE GESPYMES;gespymes software;GESPYMES SOFTWARE;;;;;;;;;;GESPYMES
Global Shop Solutions;global shop solutions;software global shop solutions;SOFTWARE GLOBAL SHOP SOLUTIONS;software global shop solutions;SOFTWARE GLOBAL SHOP SOLUTIONS;;;;;;;;;;GLOBAL SHOP SOLUTIONS
Googledrive;googledrive;drive;DRIVE;google drive;GOOGLE DRIVE;;;;;;;;;;GOOGLEDRIVE
Hightail;hightail;hightail software;HIGHTAIL SOFTWARE;software hightail;SOFTWARE HIGHTAIL;;;;;;;;;;HIGHTAIL
Hp Openview;hp openview;software hp openview;SOFTWARE HP OPENVIEW;hp openview software;HP OPENVIEW SOFTWARE;;;;;;;;;;HP OPENVIEW
Hubspot;hubspot;hubspot crm;HUBSPOT CRM;hubspot;HUBSPOT;software hubspot crm;SOFTWARE HUBSPOT CRM;hubspot software;HUBSPOT SOFTWARE;hubspot crm software;HUBSPOT CRM SOFTWARE;;;;HUBSPOT
Idempiere;idempiere;software idempiere;SOFTWARE IDEMPIERE;idempiere software;IDEMPIERE SOFTWARE;;;;;;;;;;IDEMPIERE
Infor Erp;infor erp;software infor erp;SOFTWARE INFOR ERP;infor erp software;INFOR ERP SOFTWARE;;;;;;;;;;INFOR ERP
Insightly;insightly;insightly crm;INSIGHTLY CRM;software insightly;SOFTWARE INSIGHTLY;software insightly crm;SOFTWARE INSIGHTLY CRM;insightly software;INSIGHTLY SOFTWARE;insightly crm software;INSIGHTLY CRM SOFTWARE;;;;INSIGHTLY
Iso 14001;iso 14001;normas iso 14001;NORMAS ISO 14001;norma iso 14001;NORMA ISO 14001;;;;;;;;;;ISO 14001
Iso 18001;iso 18001;normas iso 18001;NORMAS ISO 18001;norma iso 18001;NORMA ISO 18001;;;;;;;;;;ISO 18001
Iso 9001;iso 9001;normas iso 9001;NORMAS ISO 9001;norma iso 9001;NORMA ISO 9001;;;;;;;;;;ISO 9001
Loggro;loggro;software loggro;SOFTWARE LOGGRO;loggro software;LOGGRO SOFTWARE;;;;;;;;;;LOGGRO
Logical Concept;logical concept;logical concept software;LOGICAL CONCEPT SOFTWARE;software logical concept;SOFTWARE LOGICAL CONCEPT;;;;;;;;;;LOGICAL CONCEPT
Lotus Notes;lotus notes;software lotus notes;SOFTWARE LOTUS NOTES;lotus notes software;LOTUS NOTES SOFTWARE;;;;;;;;;;LOTUS NOTES
Lotus Smart Suite;lotus smart suite;software lotus smart suite;SOFTWARE LOTUS SMART SUITE;lotus smart suite software;LOTUS SMART SUITE SOFTWARE;;;;;;;;;;LOTUS SMART SUITE
Macola;macola;software macola;SOFTWARE MACOLA;macola software;MACOLA SOFTWARE;;;;;;;;;;MACOLA
Made2Manage;made2manage;software made2manage;SOFTWARE MADE2MANAGE;made 2 manage;MADE 2 MANAGE;software made 2 manage;SOFTWARE MADE 2 MANAGE;made2manage software;MADE2MANAGE SOFTWARE;made 2 manage software;MADE 2 MANAGE SOFTWARE;;;;MADE2MANAGE
Megainventory;megainventory;software megainventory;SOFTWARE MEGAINVENTORY;megainventory software;MEGAINVENTORY SOFTWARE;;;;;;;;;;MEGAINVENTORY
Metlab;metlab;software metlab;SOFTWARE METLAB;metlab software;METLAB SOFTWARE;;;;;;;;;;METLAB
Microsoft Access;microsoft access;access;ACCESS;ms access;MS ACCESS;;;;;;;;;;MICROSOFT ACCESS
Microsoft Dynamics;microsoft dynamics;dynamics;DYNAMICS;ms dynamics;MS DYNAMICS;;;;;;;;;;MICROSOFT DYNAMICS
Microsoft Excel;microsoft excel;excel;EXCEL;ms excel;MS EXCEL;;;;;;;;;;MICROSOFT EXCEL
Microsoft Exchange;microsoft exchange;exchange;EXCHANGE;ms exchange;MS EXCHANGE;;;;;;;;;;MICROSOFT EXCHANGE
Microsoft Onedrive;microsoft onedrive;onedrive;ONEDRIVE;ms onedrive;MS ONEDRIVE;;;;;;;;;;MICROSOFT ONEDRIVE
Microsoft Onenote;microsoft onenote;onenote;ONENOTE;ms onenote;MS ONENOTE;;;;;;;;;;MICROSOFT ONENOTE
Microsoft Powerpoint;microsoft powerpoint;powerpoint;POWERPOINT;power point;POWER POINT;ms powerpoint;MS POWERPOINT;ms power point;MS POWER POINT;;;;;;MICROSOFT POWERPOINT
Microsoft Project;microsoft project;project;PROJECT;ms project;MS PROJECT;;;;;;;;;;MICROSOFT PROJECT
Microsoft Visio;microsoft visio;visio;VISIO;ms visio;MS VISIO;;;;;;;;;;MICROSOFT VISIO
Microsoft Word;microsoft word;word;WORD;ms word;MS WORD;;;;;;;;;;MICROSOFT WORD
Microsoft Outlook;microsoft outlook;outlook;OUTLOOK;outlook software;OUTLOOK SOFTWARE;;;;;;;;;;MICROSOFT OUTLOOK
Mie Trak Pro;mie trak pro;software mie trak pro;SOFTWARE MIE TRAK PRO;mie trak pro software;MIE TRAK PRO SOFTWARE;;;;;;;;;;MIE TRAK PRO
Mixerp;mixerp;software mixerp;SOFTWARE MIXERP;mixerp software;MIXERP SOFTWARE;;;;;;;;;;MIXERP
Moyex;moyex;software moyex;SOFTWARE MOYEX;moyex software;MOYEX SOFTWARE;;;;;;;;;;MOYEX
Munis;munis;software munis;SOFTWARE MUNIS;munis software;MUNIS SOFTWARE;;;;;;;;;;MUNIS
Netsuite;netsuite;software netsuite;SOFTWARE NETSUITE;netsuite software;NETSUITE SOFTWARE;;;;;;;;;;NETSUITE
Nomimasol;nomimasol;nomimasol software;NOMIMASOL SOFTWARE;software nomimasol;SOFTWARE NOMIMASOL;;;;;;;;;;NOMIMASOL
Odoo;odoo;software odoo;SOFTWARE ODOO;odoo software;ODOO SOFTWARE;;;;;;;;;;ODOO
Officebooks;officebooks;software officebooks;SOFTWARE OFFICEBOOKS;officebooks software;OFFICEBOOKS SOFTWARE;;;;;;;;;;OFFICEBOOKS
Openbravo;openbravo;software openbravo;SOFTWARE OPENBRAVO;openbravo software;OPENBRAVO SOFTWARE;;;;;;;;;;OPENBRAVO
Openpro Erp;openpro erp;software openpro erp;SOFTWARE OPENPRO ERP;openpro;OPENPRO;software openpro;SOFTWARE OPENPRO;openpro erp software;OPENPRO ERP SOFTWARE;openpro software;OPENPRO SOFTWARE;;;;OPENPRO ERP
Opmanager;opmanager;software opmanager;SOFTWARE OPMANAGER;opmanager software;OPMANAGER SOFTWARE;;;;;;;;;;OPMANAGER
Oracle Crm;oracle crm;oracle;ORACLE;oracle crm software;ORACLE CRM SOFTWARE;oracle software;ORACLE SOFTWARE;software oracle crm software;SOFTWARE ORACLE CRM SOFTWARE;software oracle;SOFTWARE ORACLE;;;;ORACLE CRM
Oracle E-Business Suite;oracle e-business suite;software oracle e-business suite;SOFTWARE ORACLE E-BUSINESS SUITE;software oracle e-business;SOFTWARE ORACLE E-BUSINESS;e-business suite;E-BUSINESS SUITE;oracle e-business suite software;ORACLE E-BUSINESS SUITE SOFTWARE;oracle e-business software;ORACLE E-BUSINESS SOFTWARE;oracle e-business suite software;ORACLE E-BUSINESS SUITE SOFTWARE;oracle e-business software;ORACLE E-BUSINESS SUITE
Oracle Jd Edwards;oracle jd edwards;software oracle jd edwards;SOFTWARE ORACLE JD EDWARDS;jd edwards;JD EDWARDS;software jd edwards;SOFTWARE JD EDWARDS;oracle jd edwards software;ORACLE JD EDWARDS SOFTWARE;jd edwards software;JD EDWARDS SOFTWARE;;;;ORACLE JD EDWARDS
Oracle Netsuite;oracle netsuite;netsuite;NETSUITE;software oracle netsuite;SOFTWARE ORACLE NETSUITE;software netsuite;SOFTWARE NETSUITE;oracle netsuite software;ORACLE NETSUITE SOFTWARE;netsuite software;NETSUITE SOFTWARE;;;;ORACLE NETSUITE
Orcad;orcad;software orcad;SOFTWARE ORCAD;orcad software;ORCAD SOFTWARE;;;;;;;;;;ORCAD
Pdf-Xchange Viewer;pdf-xchange viewer;pdf xchange viewer;PDF XCHANGE VIEWER;;;;;;;;;;;;PDF-XCHANGE VIEWER
Peoplesoft;peoplesoft;software peoplesoft;SOFTWARE PEOPLESOFT;peoplesoft software;PEOPLESOFT SOFTWARE;;;;;;;;;;PEOPLESOFT
Pipedrive;pipedrive;pipedrive crm;PIPEDRIVE CRM;software pipedrive;SOFTWARE PIPEDRIVE;software pipedrive crm;SOFTWARE PIPEDRIVE CRM;pipedrive software;PIPEDRIVE SOFTWARE;pipedrive crm software;PIPEDRIVE CRM SOFTWARE;;;;PIPEDRIVE
Polygon Software;polygon software;polygon;POLYGON;polypm;POLYPM;software polygon;SOFTWARE POLYGON;;;;;;;;POLYGON SOFTWARE
Prestacob;prestacob;software prestacob;SOFTWARE PRESTACOB;prestacob software;PRESTACOB SOFTWARE;;;;;;;;;;PRESTACOB
Process Simulator;process simulator;software process simulator;SOFTWARE PROCESS SIMULATOR;process simulator software;PROCESS SIMULATOR SOFTWARE;;;;;;;;;;PROCESS SIMULATOR
Prophet21;prophet21;sofware prophet21;SOFWARE PROPHET21;prophet21 sofware;PROPHET21 SOFWARE;;;;;;;;;;PROPHET21
Prosperworks;prosperworks;prosperworks crm;PROSPERWORKS CRM;software prosperworks;SOFTWARE PROSPERWORKS;software prosperworks crm;SOFTWARE PROSPERWORKS CRM;prosperworks software;PROSPERWORKS SOFTWARE;prosperworks crm software;PROSPERWORKS CRM SOFTWARE;;;;PROSPERWORKS
Sage Erp;sage erp;software sage erp;SOFTWARE SAGE ERP;sage;SAGE;software sage;SOFTWARE SAGE;sage erp software;SAGE ERP SOFTWARE;sage software;SAGE SOFTWARE;;;;SAGE ERP
Sage Intaact;sage intaact;software sage intaact;SOFTWARE SAGE INTAACT;sage intaact software;SAGE INTAACT SOFTWARE;;;;;;;;;;SAGE INTAACT
Sage One;sage one;software sage one;SOFTWARE SAGE ONE;sage one software;SAGE ONE SOFTWARE;;;;;;;;;;SAGE ONE
Sait Básico;sait básico;sait basico;SAIT BASICO;software sait;SOFTWARE SAIT;sait software;SAIT SOFTWARE;;;;;;;;SAIT BÁSICO
Salesforce ;salesforce ;salesforce crm;SALESFORCE CRM;software salesforce;SOFTWARE SALESFORCE;sofware salesforce crm;SOFWARE SALESFORCE CRM;salesforce software;SALESFORCE SOFTWARE;salesforce crm software;SALESFORCE CRM SOFTWARE;;;;SALESFORCE 
Salesnet;salesnet;salesnet crm;SALESNET CRM;software salesnet;SOFTWARE SALESNET;software salesnet crm;SOFTWARE SALESNET CRM;salesnet software;SALESNET SOFTWARE;salesnet crm software;SALESNET CRM SOFTWARE;;;;SALESNET
Sap;sap;sistemas, aplicaciones y productos en procesamiento de datos;SISTEMAS, APLICACIONES Y PRODUCTOS EN PROCESAMIENTO DE DATOS;sistemas aplicaciones y productos en procesamiento de datos;SISTEMAS APLICACIONES Y PRODUCTOS EN PROCESAMIENTO DE DATOS;sistemas aplicaciones productos en procesamiento de datos;SISTEMAS APLICACIONES PRODUCTOS EN PROCESAMIENTO DE DATOS;;;;;;;;SAP
Sap Business One;sap business one;sap business one software;SAP BUSINESS ONE SOFTWARE;software sap business one;SOFTWARE SAP BUSINESS ONE;;;;;;;;;;SAP BUSINESS ONE
Secomat;secomat;software secomat;SOFTWARE SECOMAT;secomat software;SECOMAT SOFTWARE;;;;;;;;;;SECOMAT
Secop;secop;software secop;SOFTWARE SECOP;secop software;SECOP SOFTWARE;;;;;;;;;;SECOP
Sellsy;sellsy;software sellsy;SOFTWARE SELLSY;sellsy software;SELLSY SOFTWARE;;;;;;;;;;SELLSY
Siesa Erp;siesa erp;siesa;SIESA;software siesa erp;SOFTWARE SIESA ERP;siesa erp software;SIESA ERP SOFTWARE;software siesa;SOFTWARE SIESA;siesa software;SIESA SOFTWARE;;;;SIESA ERP
Siigo;siigo;software siigo;SOFTWARE SIIGO;siigo software;SIIGO SOFTWARE;;;;;;;;;;SIIGO
Sispag;sispag;sispag software;SISPAG SOFTWARE;software sispag;SOFTWARE SISPAG;;;;;;;;;;SISPAG
Skubana;skubana;software skubana;SOFTWARE SKUBANA;skubana software;SKUBANA SOFTWARE;;;;;;;;;;SKUBANA
Skype;skype;;;;;;;;;;;;;;SKYPE
Spss;spss;spss statistics;SPSS STATISTICS;software spss;SOFTWARE SPSS;spss software;SPSS SOFTWARE;software spss statistics;SOFTWARE SPSS STATISTICS;spss statistics software;SPSS STATISTICS SOFTWARE;;;;SPSS
Sugar;sugar;sugar crm;SUGAR CRM;software sugar;SOFTWARE SUGAR;software sugar crm;SOFTWARE SUGAR CRM;sugar software;SUGAR SOFTWARE;sugar crm software;SUGAR CRM SOFTWARE;;;;SUGAR
Syspro;syspro;software syspro;SOFTWARE SYSPRO;syspro software;SYSPRO SOFTWARE;;;;;;;;;;SYSPRO
Tca;tca;tca administrativo;TCA ADMINISTRATIVO;software tca administrativo;SOFTWARE TCA ADMINISTRATIVO;tca administrativo software;TCA ADMINISTRATIVO SOFTWARE;;;;;;;;TCA
Versaccounts;versaccounts;software versaccounts;SOFTWARE VERSACCOUNTS;versaccounts software;VERSACCOUNTS SOFTWARE;;;;;;;;;;VERSACCOUNTS
Vienna Advantage;vienna advantage;software vienna advantage;SOFTWARE VIENNA ADVANTAGE;vienna advantage software;VIENNA ADVANTAGE SOFTWARE;;;;;;;;;;VIENNA ADVANTAGE
Winfds;winfds;software winfds;SOFTWARE WINFDS;winfds software;WINFDS SOFTWARE;;;;;;;;;;WINFDS
Winweb;winweb;software winweb;SOFTWARE WINWEB;winweb software;WINWEB SOFTWARE;;;;;;;;;;WINWEB
Xtuple;xtuple;software xtuple;SOFTWARE XTUPLE;xtuple software;XTUPLE SOFTWARE;;;;;;;;;;XTUPLE
Zendesk;zendesk;zendesk software;ZENDESK SOFTWARE;software zendesk;SOFTWARE ZENDESK;;;;;;;;;;ZENDESK
Zoho Crm;zoho crm;zoho;ZOHO;software zoho;SOFTWARE ZOHO;software zoho crm;SOFTWARE ZOHO CRM;zoho software;ZOHO SOFTWARE;zoho crm software;ZOHO CRM SOFTWARE;;;;ZOHO CRM
